simulation/qsim/maquina.msim.vcd
$comment
	File created using the following command:
		vcd file maquina.msim.vcd -direction
$end
$date
	Sun Sep 17 16:14:02 2023
$end
$version
	ModelSim Version 10.5b
$end
$timescale
	1ps
$end

$scope module maquina_mealy_boton_vhd_vec_tst $end
$var wire 1 ! CLK $end
$var wire 1 " RESET $end
$var wire 1 # X $end
$var wire 1 $ z $end

$scope module i1 $end
$var wire 1 % gnd $end
$var wire 1 & vcc $end
$var wire 1 ' unknown $end
$var wire 1 ( devoe $end
$var wire 1 ) devclrn $end
$var wire 1 * devpor $end
$var wire 1 + ww_devoe $end
$var wire 1 , ww_devclrn $end
$var wire 1 - ww_devpor $end
$var wire 1 . ww_X $end
$var wire 1 / ww_CLK $end
$var wire 1 0 ww_RESET $end
$var wire 1 1 ww_z $end
$var wire 1 2 \RESET~inputclkctrl_INCLK_bus\ [3] $end
$var wire 1 3 \RESET~inputclkctrl_INCLK_bus\ [2] $end
$var wire 1 4 \RESET~inputclkctrl_INCLK_bus\ [1] $end
$var wire 1 5 \RESET~inputclkctrl_INCLK_bus\ [0] $end
$var wire 1 6 \CLK~inputclkctrl_INCLK_bus\ [3] $end
$var wire 1 7 \CLK~inputclkctrl_INCLK_bus\ [2] $end
$var wire 1 8 \CLK~inputclkctrl_INCLK_bus\ [1] $end
$var wire 1 9 \CLK~inputclkctrl_INCLK_bus\ [0] $end
$var wire 1 : \z~output_o\ $end
$var wire 1 ; \X~input_o\ $end
$var wire 1 < \CLK~input_o\ $end
$var wire 1 = \CLK~inputclkctrl_outclk\ $end
$var wire 1 > \NS.s1~0_combout\ $end
$var wire 1 ? \RESET~input_o\ $end
$var wire 1 @ \RESET~inputclkctrl_outclk\ $end
$var wire 1 A \PS.s1~q\ $end
$var wire 1 B \NS.s3~0_combout\ $end
$var wire 1 C \PS.s3~q\ $end
$var wire 1 D \Selector2~0_combout\ $end
$var wire 1 E \PS.s2~q\ $end
$var wire 1 F \Selector1~0_combout\ $end
$var wire 1 G \PS.s0~q\ $end
$var wire 1 H \Selector0~0_combout\ $end
$upscope $end
$upscope $end
$enddefinitions $end
#0
$dumpvars
0!
1"
1#
1$
0%
1&
x'
1(
1)
1*
1+
1,
1-
1.
0/
10
11
1:
1;
0<
0=
1>
1?
1@
0A
0B
0C
0D
0E
1F
0G
1H
16
17
18
09
12
13
14
15
$end
#5000
1!
1/
1<
19
1=
1A
1G
#10000
0!
0/
0<
09
0=
#15000
1!
1/
1<
19
1=
#20000
0!
0/
0<
09
0=
#25000
1!
1/
1<
19
1=
#30000
0!
0/
0<
09
0=
#35000
1!
1/
1<
19
1=
#40000
0!
0/
0<
09
0=
#45000
1!
1/
1<
19
1=
#50000
0!
0/
0<
09
0=
#55000
1!
1/
1<
19
1=
#60000
0!
0/
0<
09
0=
#65000
1!
1/
1<
19
1=
#70000
0!
0/
0<
09
0=
#75000
1!
1/
1<
19
1=
#80000
0!
0/
0<
09
0=
#85000
1!
1/
1<
19
1=
#90000
0!
0/
0<
09
0=
#95000
1!
1/
1<
19
1=
#100000
0!
0/
0<
09
0=
#105000
1!
1/
1<
19
1=
#110000
0!
0/
0<
09
0=
#115000
1!
1/
1<
19
1=
#120000
0!
0#
0/
0.
0;
0<
09
0>
1D
0=
#125000
1!
1/
1<
19
1=
0A
1E
#130000
0!
0/
0<
09
0=
#135000
1!
1/
1<
19
1=
#140000
0!
0/
0<
09
0=
#145000
1!
1/
1<
19
1=
#150000
0!
0/
0<
09
0=
#155000
1!
1/
1<
19
1=
#160000
0!
0/
0<
09
0=
#165000
1!
1/
1<
19
1=
#170000
0!
1#
0/
1.
1;
0<
09
1B
0D
0H
0=
0:
01
0$
#175000
1!
1/
1<
19
1=
1C
0E
#180000
0!
0/
0<
09
0=
#185000
1!
1/
1<
19
1=
#190000
0!
0/
0<
09
0=
#195000
1!
1/
1<
19
1=
#200000
0!
0/
0<
09
0=
#205000
1!
1/
1<
19
1=
#210000
0!
0/
0<
09
0=
#215000
1!
1/
1<
19
1=
#220000
0!
0/
0<
09
0=
#225000
1!
1/
1<
19
1=
#230000
0!
0/
0<
09
0=
#235000
1!
1/
1<
19
1=
#240000
0!
0/
0<
09
0=
#245000
1!
1/
1<
19
1=
#250000
0!
0/
0<
09
0=
#255000
1!
1/
1<
19
1=
#260000
0!
0/
0<
09
0=
#265000
1!
1/
1<
19
1=
#270000
0!
0/
0<
09
0=
#275000
1!
1/
1<
19
1=
#280000
0!
0/
0<
09
0=
#285000
1!
1/
1<
19
1=
#290000
0!
0#
0/
0.
0;
0<
09
0B
0F
0=
#295000
1!
1/
1<
19
1=
0C
0G
#300000
0!
0/
0<
09
0=
#305000
1!
1/
1<
19
1=
#310000
0!
0/
0<
09
0=
#315000
1!
1/
1<
19
1=
#320000
0!
0/
0<
09
0=
#325000
1!
1/
1<
19
1=
#330000
0!
0/
0<
09
0=
#335000
1!
1/
1<
19
1=
#340000
0!
0/
0<
09
0=
#345000
1!
1/
1<
19
1=
#350000
0!
0/
0<
09
0=
#355000
1!
1/
1<
19
1=
#360000
0!
0/
0<
09
0=
#365000
1!
1/
1<
19
1=
#370000
0!
0/
0<
09
0=
#375000
1!
1/
1<
19
1=
#380000
0!
0/
0<
09
0=
#385000
1!
1/
1<
19
1=
#390000
0!
0/
0<
09
0=
#395000
1!
1/
1<
19
1=
#400000
0!
0/
0<
09
0=
#405000
1!
1/
1<
19
1=
#410000
0!
1#
0/
1.
1;
0<
09
1>
1F
1H
0=
1:
11
1$
#415000
1!
1/
1<
19
1=
1A
1G
#420000
0!
0/
0<
09
0=
#425000
1!
1/
1<
19
1=
#430000
0!
0/
0<
09
0=
#435000
1!
1/
1<
19
1=
#440000
0!
0/
0<
09
0=
#445000
1!
1/
1<
19
1=
#450000
0!
0/
0<
09
0=
#455000
1!
1/
1<
19
1=
#460000
0!
0/
0<
09
0=
#465000
1!
1/
1<
19
1=
#470000
0!
0/
0<
09
0=
#475000
1!
1/
1<
19
1=
#480000
0!
0/
0<
09
0=
#485000
1!
1/
1<
19
1=
#490000
0!
0#
0/
0.
0;
0<
09
0>
1D
0=
#495000
1!
1/
1<
19
1=
0A
1E
#500000
0!
0/
0<
09
0=
#505000
1!
1/
1<
19
1=
#510000
0!
0/
0<
09
0=
#515000
1!
1/
1<
19
1=
#520000
0!
0/
0<
09
0=
#525000
1!
1/
1<
19
1=
#530000
0!
0/
0<
09
0=
#535000
1!
1/
1<
19
1=
#540000
0!
0/
0<
09
0=
#545000
1!
1/
1<
19
1=
#550000
0!
0/
0<
09
0=
#555000
1!
1/
1<
19
1=
#560000
0!
0/
0<
09
0=
#565000
1!
1/
1<
19
1=
#570000
0!
0/
0<
09
0=
#575000
1!
1/
1<
19
1=
#580000
0!
0/
0<
09
0=
#585000
1!
1/
1<
19
1=
#590000
0!
0/
0<
09
0=
#595000
1!
1/
1<
19
1=
#600000
0!
0/
0<
09
0=
#605000
1!
1/
1<
19
1=
#610000
0!
0/
0<
09
0=
#615000
1!
1/
1<
19
1=
#620000
0!
0/
0<
09
0=
#625000
1!
1/
1<
19
1=
#630000
0!
1#
0/
1.
1;
0<
09
1B
0D
0H
0=
0:
01
0$
#635000
1!
1/
1<
19
1=
1C
0E
#640000
0!
0/
0<
09
0=
#645000
1!
1/
1<
19
1=
#650000
0!
0/
0<
09
0=
#655000
1!
1/
1<
19
1=
#660000
0!
0/
0<
09
0=
#665000
1!
1/
1<
19
1=
#670000
0!
0/
0<
09
0=
#675000
1!
1/
1<
19
1=
#680000
0!
0/
0<
09
0=
#685000
1!
1/
1<
19
1=
#690000
0!
0/
0<
09
0=
#695000
1!
1/
1<
19
1=
#700000
0!
0/
0<
09
0=
#705000
1!
1/
1<
19
1=
#710000
0!
0/
0<
09
0=
#715000
1!
1/
1<
19
1=
#720000
0!
0/
0<
09
0=
#725000
1!
1/
1<
19
1=
#730000
0!
0#
0/
0.
0;
0<
09
0B
0F
0=
#735000
1!
1/
1<
19
1=
0C
0G
#740000
0!
0/
0<
09
0=
#745000
1!
1/
1<
19
1=
#750000
0!
0/
0<
09
0=
#755000
1!
1/
1<
19
1=
#760000
0!
0/
0<
09
0=
#765000
1!
1/
1<
19
1=
#770000
0!
0/
0<
09
0=
#775000
1!
1/
1<
19
1=
#780000
0!
0/
0<
09
0=
#785000
1!
1/
1<
19
1=
#790000
0!
0/
0<
09
0=
#795000
1!
1/
1<
19
1=
#800000
0!
0/
0<
09
0=
#805000
1!
1/
1<
19
1=
#810000
0!
0/
0<
09
0=
#815000
1!
1/
1<
19
1=
#820000
0!
0/
0<
09
0=
#825000
1!
1/
1<
19
1=
#830000
0!
0/
0<
09
0=
#835000
1!
1/
1<
19
1=
#840000
0!
0/
0<
09
0=
#845000
1!
1/
1<
19
1=
#850000
0!
0/
0<
09
0=
#855000
1!
1/
1<
19
1=
#860000
0!
0/
0<
09
0=
#865000
1!
1/
1<
19
1=
#870000
0!
0/
0<
09
0=
#875000
1!
1/
1<
19
1=
#880000
0!
0/
0<
09
0=
#885000
1!
1/
1<
19
1=
#890000
0!
0/
0<
09
0=
#895000
1!
1/
1<
19
1=
#900000
0!
0/
0<
09
0=
#905000
1!
1/
1<
19
1=
#910000
0!
0/
0<
09
0=
#915000
1!
1/
1<
19
1=
#920000
0!
0/
0<
09
0=
#925000
1!
1/
1<
19
1=
#930000
0!
0/
0<
09
0=
#935000
1!
1/
1<
19
1=
#940000
0!
0/
0<
09
0=
#945000
1!
1/
1<
19
1=
#950000
0!
0/
0<
09
0=
#955000
1!
1/
1<
19
1=
#960000
0!
0/
0<
09
0=
#965000
1!
1/
1<
19
1=
#970000
0!
0/
0<
09
0=
#975000
1!
1/
1<
19
1=
#980000
0!
0/
0<
09
0=
#985000
1!
1/
1<
19
1=
#990000
0!
0/
0<
09
0=
#995000
1!
1/
1<
19
1=
